(kicad_sch (version 20230121) (generator eeschema)

  (uuid cfbc6cf0-a60b-4ffa-98a4-deb9579d4af2)

  (paper "A4")

  (lib_symbols
    (symbol "BH1750FVI-TR:BH1750FVI-TR" (pin_names (offset 1.016)) (in_bom yes) (on_board yes)
      (property "Reference" "U" (at -10.1737 13.462 0)
        (effects (font (size 1.27 1.27)) (justify left bottom))
      )
      (property "Value" "BH1750FVI-TR" (at -9.922 -15.24 0)
        (effects (font (size 1.27 1.27)) (justify left bottom))
      )
      (property "Footprint" "XDCR_BH1750FVI-TR" (at 0 0 0)
        (effects (font (size 1.27 1.27)) (justify bottom) hide)
      )
      (property "Datasheet" "" (at 0 0 0)
        (effects (font (size 1.27 1.27)) hide)
      )
      (property "MANUFACTURER" "Rohm" (at 0 0 0)
        (effects (font (size 1.27 1.27)) (justify bottom) hide)
      )
      (property "PARTREV" "D" (at 0 0 0)
        (effects (font (size 1.27 1.27)) (justify bottom) hide)
      )
      (property "STANDARD" "Manufacturer recommendations" (at 0 0 0)
        (effects (font (size 1.27 1.27)) (justify bottom) hide)
      )
      (property "MAXIMUM_PACKAGE_HEIGHT" "0.75mm" (at 0 0 0)
        (effects (font (size 1.27 1.27)) (justify bottom) hide)
      )
      (symbol "BH1750FVI-TR_0_0"
        (rectangle (start -10.16 -12.7) (end 10.16 12.7)
          (stroke (width 0.254) (type default))
          (fill (type background))
        )
        (pin power_in line (at 15.24 10.16 180) (length 5.08)
          (name "VCC" (effects (font (size 1.016 1.016))))
          (number "1" (effects (font (size 1.016 1.016))))
        )
        (pin input line (at -15.24 -5.08 0) (length 5.08)
          (name "ADDR" (effects (font (size 1.016 1.016))))
          (number "2" (effects (font (size 1.016 1.016))))
        )
        (pin power_in line (at 15.24 -10.16 180) (length 5.08)
          (name "GND" (effects (font (size 1.016 1.016))))
          (number "3" (effects (font (size 1.016 1.016))))
        )
        (pin bidirectional line (at -15.24 -2.54 0) (length 5.08)
          (name "SDA" (effects (font (size 1.016 1.016))))
          (number "4" (effects (font (size 1.016 1.016))))
        )
        (pin input line (at -15.24 5.08 0) (length 5.08)
          (name "DVI" (effects (font (size 1.016 1.016))))
          (number "5" (effects (font (size 1.016 1.016))))
        )
        (pin input clock (at -15.24 0 0) (length 5.08)
          (name "SCL" (effects (font (size 1.016 1.016))))
          (number "6" (effects (font (size 1.016 1.016))))
        )
      )
    )
    (symbol "Device:C" (pin_numbers hide) (pin_names (offset 0.254)) (in_bom yes) (on_board yes)
      (property "Reference" "C" (at 0.635 2.54 0)
        (effects (font (size 1.27 1.27)) (justify left))
      )
      (property "Value" "C" (at 0.635 -2.54 0)
        (effects (font (size 1.27 1.27)) (justify left))
      )
      (property "Footprint" "" (at 0.9652 -3.81 0)
        (effects (font (size 1.27 1.27)) hide)
      )
      (property "Datasheet" "~" (at 0 0 0)
        (effects (font (size 1.27 1.27)) hide)
      )
      (property "ki_keywords" "cap capacitor" (at 0 0 0)
        (effects (font (size 1.27 1.27)) hide)
      )
      (property "ki_description" "Unpolarized capacitor" (at 0 0 0)
        (effects (font (size 1.27 1.27)) hide)
      )
      (property "ki_fp_filters" "C_*" (at 0 0 0)
        (effects (font (size 1.27 1.27)) hide)
      )
      (symbol "C_0_1"
        (polyline
          (pts
            (xy -2.032 -0.762)
            (xy 2.032 -0.762)
          )
          (stroke (width 0.508) (type default))
          (fill (type none))
        )
        (polyline
          (pts
            (xy -2.032 0.762)
            (xy 2.032 0.762)
          )
          (stroke (width 0.508) (type default))
          (fill (type none))
        )
      )
      (symbol "C_1_1"
        (pin passive line (at 0 3.81 270) (length 2.794)
          (name "~" (effects (font (size 1.27 1.27))))
          (number "1" (effects (font (size 1.27 1.27))))
        )
        (pin passive line (at 0 -3.81 90) (length 2.794)
          (name "~" (effects (font (size 1.27 1.27))))
          (number "2" (effects (font (size 1.27 1.27))))
        )
      )
    )
    (symbol "Device:LED" (pin_numbers hide) (pin_names (offset 1.016) hide) (in_bom yes) (on_board yes)
      (property "Reference" "D" (at 0 2.54 0)
        (effects (font (size 1.27 1.27)))
      )
      (property "Value" "LED" (at 0 -2.54 0)
        (effects (font (size 1.27 1.27)))
      )
      (property "Footprint" "" (at 0 0 0)
        (effects (font (size 1.27 1.27)) hide)
      )
      (property "Datasheet" "~" (at 0 0 0)
        (effects (font (size 1.27 1.27)) hide)
      )
      (property "ki_keywords" "LED diode" (at 0 0 0)
        (effects (font (size 1.27 1.27)) hide)
      )
      (property "ki_description" "Light emitting diode" (at 0 0 0)
        (effects (font (size 1.27 1.27)) hide)
      )
      (property "ki_fp_filters" "LED* LED_SMD:* LED_THT:*" (at 0 0 0)
        (effects (font (size 1.27 1.27)) hide)
      )
      (symbol "LED_0_1"
        (polyline
          (pts
            (xy -1.27 -1.27)
            (xy -1.27 1.27)
          )
          (stroke (width 0.254) (type default))
          (fill (type none))
        )
        (polyline
          (pts
            (xy -1.27 0)
            (xy 1.27 0)
          )
          (stroke (width 0) (type default))
          (fill (type none))
        )
        (polyline
          (pts
            (xy 1.27 -1.27)
            (xy 1.27 1.27)
            (xy -1.27 0)
            (xy 1.27 -1.27)
          )
          (stroke (width 0.254) (type default))
          (fill (type none))
        )
        (polyline
          (pts
            (xy -3.048 -0.762)
            (xy -4.572 -2.286)
            (xy -3.81 -2.286)
            (xy -4.572 -2.286)
            (xy -4.572 -1.524)
          )
          (stroke (width 0) (type default))
          (fill (type none))
        )
        (polyline
          (pts
            (xy -1.778 -0.762)
            (xy -3.302 -2.286)
            (xy -2.54 -2.286)
            (xy -3.302 -2.286)
            (xy -3.302 -1.524)
          )
          (stroke (width 0) (type default))
          (fill (type none))
        )
      )
      (symbol "LED_1_1"
        (pin passive line (at -3.81 0 0) (length 2.54)
          (name "K" (effects (font (size 1.27 1.27))))
          (number "1" (effects (font (size 1.27 1.27))))
        )
        (pin passive line (at 3.81 0 180) (length 2.54)
          (name "A" (effects (font (size 1.27 1.27))))
          (number "2" (effects (font (size 1.27 1.27))))
        )
      )
    )
    (symbol "Device:R" (pin_numbers hide) (pin_names (offset 0)) (in_bom yes) (on_board yes)
      (property "Reference" "R" (at 2.032 0 90)
        (effects (font (size 1.27 1.27)))
      )
      (property "Value" "R" (at 0 0 90)
        (effects (font (size 1.27 1.27)))
      )
      (property "Footprint" "" (at -1.778 0 90)
        (effects (font (size 1.27 1.27)) hide)
      )
      (property "Datasheet" "~" (at 0 0 0)
        (effects (font (size 1.27 1.27)) hide)
      )
      (property "ki_keywords" "R res resistor" (at 0 0 0)
        (effects (font (size 1.27 1.27)) hide)
      )
      (property "ki_description" "Resistor" (at 0 0 0)
        (effects (font (size 1.27 1.27)) hide)
      )
      (property "ki_fp_filters" "R_*" (at 0 0 0)
        (effects (font (size 1.27 1.27)) hide)
      )
      (symbol "R_0_1"
        (rectangle (start -1.016 -2.54) (end 1.016 2.54)
          (stroke (width 0.254) (type default))
          (fill (type none))
        )
      )
      (symbol "R_1_1"
        (pin passive line (at 0 3.81 270) (length 1.27)
          (name "~" (effects (font (size 1.27 1.27))))
          (number "1" (effects (font (size 1.27 1.27))))
        )
        (pin passive line (at 0 -3.81 90) (length 1.27)
          (name "~" (effects (font (size 1.27 1.27))))
          (number "2" (effects (font (size 1.27 1.27))))
        )
      )
    )
    (symbol "power:GND" (power) (pin_names (offset 0)) (in_bom yes) (on_board yes)
      (property "Reference" "#PWR" (at 0 -6.35 0)
        (effects (font (size 1.27 1.27)) hide)
      )
      (property "Value" "GND" (at 0 -3.81 0)
        (effects (font (size 1.27 1.27)))
      )
      (property "Footprint" "" (at 0 0 0)
        (effects (font (size 1.27 1.27)) hide)
      )
      (property "Datasheet" "" (at 0 0 0)
        (effects (font (size 1.27 1.27)) hide)
      )
      (property "ki_keywords" "global power" (at 0 0 0)
        (effects (font (size 1.27 1.27)) hide)
      )
      (property "ki_description" "Power symbol creates a global label with name \"GND\" , ground" (at 0 0 0)
        (effects (font (size 1.27 1.27)) hide)
      )
      (symbol "GND_0_1"
        (polyline
          (pts
            (xy 0 0)
            (xy 0 -1.27)
            (xy 1.27 -1.27)
            (xy 0 -2.54)
            (xy -1.27 -1.27)
            (xy 0 -1.27)
          )
          (stroke (width 0) (type default))
          (fill (type none))
        )
      )
      (symbol "GND_1_1"
        (pin power_in line (at 0 0 270) (length 0) hide
          (name "GND" (effects (font (size 1.27 1.27))))
          (number "1" (effects (font (size 1.27 1.27))))
        )
      )
    )
    (symbol "power:PWR_FLAG" (power) (pin_numbers hide) (pin_names (offset 0) hide) (in_bom yes) (on_board yes)
      (property "Reference" "#FLG" (at 0 1.905 0)
        (effects (font (size 1.27 1.27)) hide)
      )
      (property "Value" "PWR_FLAG" (at 0 3.81 0)
        (effects (font (size 1.27 1.27)))
      )
      (property "Footprint" "" (at 0 0 0)
        (effects (font (size 1.27 1.27)) hide)
      )
      (property "Datasheet" "~" (at 0 0 0)
        (effects (font (size 1.27 1.27)) hide)
      )
      (property "ki_keywords" "flag power" (at 0 0 0)
        (effects (font (size 1.27 1.27)) hide)
      )
      (property "ki_description" "Special symbol for telling ERC where power comes from" (at 0 0 0)
        (effects (font (size 1.27 1.27)) hide)
      )
      (symbol "PWR_FLAG_0_0"
        (pin power_out line (at 0 0 90) (length 0)
          (name "pwr" (effects (font (size 1.27 1.27))))
          (number "1" (effects (font (size 1.27 1.27))))
        )
      )
      (symbol "PWR_FLAG_0_1"
        (polyline
          (pts
            (xy 0 0)
            (xy 0 1.27)
            (xy -1.016 1.905)
            (xy 0 2.54)
            (xy 1.016 1.905)
            (xy 0 1.27)
          )
          (stroke (width 0) (type default))
          (fill (type none))
        )
      )
    )
  )

  (junction (at 139.7 139.7) (diameter 0) (color 0 0 0 0)
    (uuid 0a0beb9c-30db-4eea-8175-7621093119c1)
  )
  (junction (at 167.64 96.52) (diameter 0) (color 0 0 0 0)
    (uuid 269785ae-02c4-4616-9775-3baade187182)
  )
  (junction (at 106.68 90.17) (diameter 0) (color 0 0 0 0)
    (uuid 82a71e2d-9e20-4244-91d3-2189b321f5e8)
  )

  (wire (pts (xy 177.8 80.01) (xy 176.53 80.01))
    (stroke (width 0) (type default))
    (uuid 1a2467f8-770d-4b3f-9a2b-e645c83cadea)
  )
  (wire (pts (xy 109.22 90.17) (xy 109.22 69.85))
    (stroke (width 0) (type default))
    (uuid 29d4b2a4-0379-448a-84f8-42cb4b55ec40)
  )
  (wire (pts (xy 106.68 82.55) (xy 106.68 90.17))
    (stroke (width 0) (type default))
    (uuid 43001b23-6773-4ab6-93db-b3795488e19b)
  )
  (wire (pts (xy 167.64 107.95) (xy 167.64 106.68))
    (stroke (width 0) (type default))
    (uuid 62435296-b50e-452f-9545-e418ed70ac95)
  )
  (wire (pts (xy 167.64 96.52) (xy 177.8 96.52))
    (stroke (width 0) (type default))
    (uuid 66cc9e52-be21-4731-92f2-d19f9eb97be8)
  )
  (wire (pts (xy 144.78 139.7) (xy 139.7 139.7))
    (stroke (width 0) (type default))
    (uuid 698e2487-e275-4322-9144-ff466d6fe7c8)
  )
  (wire (pts (xy 106.68 93.98) (xy 106.68 90.17))
    (stroke (width 0) (type default))
    (uuid 6c715ebf-43ee-41e1-904c-49696612f9fe)
  )
  (wire (pts (xy 139.7 135.89) (xy 139.7 139.7))
    (stroke (width 0) (type default))
    (uuid 7cae332e-9327-4a28-a132-6c6630193e92)
  )
  (wire (pts (xy 139.7 139.7) (xy 130.81 139.7))
    (stroke (width 0) (type default))
    (uuid 95c3fc8f-6707-4995-bcbd-db58cc89e761)
  )
  (wire (pts (xy 176.53 80.01) (xy 176.53 76.2))
    (stroke (width 0) (type default))
    (uuid 994b63cd-046a-46f8-9181-b22fa69b792f)
  )
  (wire (pts (xy 152.4 96.52) (xy 152.4 99.06))
    (stroke (width 0) (type default))
    (uuid 9c4c61cf-46b2-48ea-a56e-0c027362c69d)
  )
  (wire (pts (xy 149.86 69.85) (xy 149.86 78.74))
    (stroke (width 0) (type default))
    (uuid 9f5e6150-8287-4f4d-8085-76d4fd2c92e4)
  )
  (wire (pts (xy 152.4 99.06) (xy 149.86 99.06))
    (stroke (width 0) (type default))
    (uuid acf865a0-e398-4cf1-80f6-e9e0638ae044)
  )
  (wire (pts (xy 114.3 118.11) (xy 114.3 120.65))
    (stroke (width 0) (type default))
    (uuid b26cf2e9-0c85-4c26-b173-da43380fc5d9)
  )
  (wire (pts (xy 177.8 95.25) (xy 177.8 96.52))
    (stroke (width 0) (type default))
    (uuid b69796f4-0d74-430a-9578-d97c0bae519a)
  )
  (wire (pts (xy 139.7 113.03) (xy 139.7 114.3))
    (stroke (width 0) (type default))
    (uuid b82eb5c7-da90-4b52-8a89-7fe88bc991f9)
  )
  (wire (pts (xy 109.22 69.85) (xy 149.86 69.85))
    (stroke (width 0) (type default))
    (uuid ba3c7def-92b7-4b89-a615-c1d493bc0381)
  )
  (wire (pts (xy 167.64 96.52) (xy 167.64 99.06))
    (stroke (width 0) (type default))
    (uuid c35c2374-9497-46bb-8837-f3538dda24f6)
  )
  (wire (pts (xy 167.64 87.63) (xy 167.64 88.9))
    (stroke (width 0) (type default))
    (uuid c7cbea4e-c992-403b-975d-2ea294f706cd)
  )
  (wire (pts (xy 114.3 130.81) (xy 114.3 128.27))
    (stroke (width 0) (type default))
    (uuid ca537237-0dab-4692-9cb4-533f7e279bde)
  )
  (wire (pts (xy 167.64 77.47) (xy 167.64 80.01))
    (stroke (width 0) (type default))
    (uuid cf287c55-2961-41c6-861b-a62d4e509538)
  )
  (wire (pts (xy 154.94 96.52) (xy 167.64 96.52))
    (stroke (width 0) (type default))
    (uuid dc9afbc2-f8f6-4253-adf8-8f61a81eaec8)
  )
  (wire (pts (xy 139.7 121.92) (xy 139.7 128.27))
    (stroke (width 0) (type default))
    (uuid dcda0fbb-0161-4162-90c2-329b32a4eeff)
  )
  (wire (pts (xy 130.81 127) (xy 130.81 139.7))
    (stroke (width 0) (type default))
    (uuid e9bf7f80-ed98-428e-9a55-079b310b1388)
  )
  (wire (pts (xy 106.68 90.17) (xy 109.22 90.17))
    (stroke (width 0) (type default))
    (uuid f0651d09-16cf-4af1-a273-dcf231961828)
  )
  (wire (pts (xy 130.81 113.03) (xy 130.81 119.38))
    (stroke (width 0) (type default))
    (uuid f4a33769-3a9f-41a6-8512-d2281dc360fc)
  )
  (wire (pts (xy 106.68 93.98) (xy 119.38 93.98))
    (stroke (width 0) (type default))
    (uuid fbe3ed95-91f9-4846-84c0-d8d5daf69245)
  )

  (rectangle (start 154.305 66.675) (end 154.305 104.14)
    (stroke (width 0) (type default))
    (fill (type none))
    (uuid 3ab51f1f-2db2-4d7a-b3fb-62f7269422f1)
  )
  (rectangle (start 100.33 66.675) (end 190.5 141.605)
    (stroke (width 0) (type default))
    (fill (type none))
    (uuid 79eb99d0-c803-4a3c-bd8f-0a62f06b0f77)
  )
  (rectangle (start 100.33 104.14) (end 159.385 141.605)
    (stroke (width 0) (type default))
    (fill (type none))
    (uuid 85bdf956-927c-44a0-8c40-4050e7ba2ae1)
  )
  (rectangle (start 123.19 104.14) (end 123.19 141.605)
    (stroke (width 0) (type default))
    (fill (type none))
    (uuid f63d06c5-25af-4d8e-8c84-67369ceb3914)
  )

  (text "DIGITAL AMBIENT LIGHT SENSOR\n\n" (at 104.14 59.69 0)
    (effects (font (size 2 2)) (justify left bottom))
    (uuid 04072ea7-96ec-4b19-8095-be5596b9b41c)
  )
  (text "INTERRUPT CIRCUIT\n" (at 141.605 107.95 0)
    (effects (font (size 1.27 1.27)) (justify left bottom))
    (uuid bd165d88-95c3-4f90-9f6a-cab0b9bd54e5)
  )
  (text "3.3V CHECK\n" (at 101.6 106.68 0)
    (effects (font (size 1.27 1.27)) (justify left bottom))
    (uuid c32b705c-019f-4a30-8838-471b6075f3b9)
  )

  (label "DVI" (at 154.94 96.52 0) (fields_autoplaced)
    (effects (font (size 1.27 1.27)) (justify left bottom))
    (uuid a5decbb9-e00f-41f9-bb92-3294fe9c093e)
  )
  (label "DVI" (at 119.38 83.82 180) (fields_autoplaced)
    (effects (font (size 1.27 1.27)) (justify right bottom))
    (uuid d54ad01d-99e4-4227-9687-81dabaf8d3c1)
  )

  (hierarchical_label "I2C Data" (shape output) (at 119.38 91.44 180) (fields_autoplaced)
    (effects (font (size 1.27 1.27)) (justify right))
    (uuid 3b7e2c35-8d05-49d5-996f-24c6e1661a07)
  )
  (hierarchical_label "+3.3V" (shape input) (at 130.81 113.03 90) (fields_autoplaced)
    (effects (font (size 1.27 1.27)) (justify left))
    (uuid 58d77a32-7bad-4814-8085-67930f062f2d)
  )
  (hierarchical_label "+3.3V" (shape input) (at 167.64 77.47 90) (fields_autoplaced)
    (effects (font (size 1.27 1.27)) (justify left))
    (uuid 7096509a-e911-4b7b-9972-ecb28387f3ba)
  )
  (hierarchical_label "DVI" (shape input) (at 160.02 96.52 270) (fields_autoplaced)
    (effects (font (size 1.27 1.27)) (justify right))
    (uuid 739d6125-b36b-498f-854e-befa733a2506)
  )
  (hierarchical_label "+3.3V" (shape input) (at 114.3 118.11 90) (fields_autoplaced)
    (effects (font (size 1.27 1.27)) (justify left))
    (uuid 910ff92e-7ebc-4b5b-ad5e-6248f3f4b433)
  )
  (hierarchical_label "I2C Clock" (shape input) (at 119.38 88.9 180) (fields_autoplaced)
    (effects (font (size 1.27 1.27)) (justify right))
    (uuid 981aa6a6-b0f1-47d6-aaba-b309900b60be)
  )
  (hierarchical_label "+3.3V" (shape input) (at 76.2 40.64 270) (fields_autoplaced)
    (effects (font (size 1.27 1.27)) (justify right))
    (uuid b0847ba2-014e-4c3f-8f82-03a24ab1a795)
  )
  (hierarchical_label "Interrupt" (shape output) (at 144.78 139.7 0) (fields_autoplaced)
    (effects (font (size 1.27 1.27)) (justify left))
    (uuid b52c0c5a-dfbc-4113-8245-ba5cc3385dd2)
  )
  (hierarchical_label "+3.3V" (shape input) (at 176.53 76.2 90) (fields_autoplaced)
    (effects (font (size 1.27 1.27)) (justify left))
    (uuid cc0db543-a8a4-453a-b835-50e8576963aa)
  )
  (hierarchical_label "+3.3V" (shape input) (at 106.68 82.55 180) (fields_autoplaced)
    (effects (font (size 1.27 1.27)) (justify right))
    (uuid dc0b592f-498f-4dbb-b186-255cdc80a30a)
  )
  (hierarchical_label "+3.3V" (shape input) (at 139.7 113.03 90) (fields_autoplaced)
    (effects (font (size 1.27 1.27)) (justify left))
    (uuid f289ea5f-9e43-451c-af3c-7dcb5401e872)
  )

  (symbol (lib_id "Device:LED") (at 139.7 118.11 90) (unit 1)
    (in_bom yes) (on_board yes) (dnp no) (fields_autoplaced)
    (uuid 2f8be152-40c7-4ace-a48b-4e43b14fde96)
    (property "Reference" "D9" (at 142.875 119.0625 90)
      (effects (font (size 1.27 1.27)) (justify right))
    )
    (property "Value" "LED" (at 142.875 121.6025 90)
      (effects (font (size 1.27 1.27)) (justify right))
    )
    (property "Footprint" "LED_SMD:LED_0805_2012Metric_Pad1.15x1.40mm_HandSolder" (at 139.7 118.11 0)
      (effects (font (size 1.27 1.27)) hide)
    )
    (property "Datasheet" "~" (at 139.7 118.11 0)
      (effects (font (size 1.27 1.27)) hide)
    )
    (pin "1" (uuid 7956f770-889c-47bd-a80c-8048885bf42e))
    (pin "2" (uuid 8fca967d-7ee1-4d83-80e5-c190eb855480))
    (instances
      (project "EEE88"
        (path "/4c4b5429-b7a2-420c-b88b-ebe885317a81/93f6054d-c5d2-4e5b-9608-b51adef457dd/8fd898c2-cbc8-492a-8a1a-2a57edcdc78b"
          (reference "D9") (unit 1)
        )
      )
      (project "Sensor (1)"
        (path "/ef2f9421-0c9c-454c-9295-d30afe1ad00b"
          (reference "D5") (unit 1)
        )
      )
    )
  )

  (symbol (lib_id "Device:LED") (at 167.64 83.82 90) (unit 1)
    (in_bom yes) (on_board yes) (dnp no) (fields_autoplaced)
    (uuid 3ca721af-e733-4af3-b1e6-2bca74d704fa)
    (property "Reference" "D10" (at 171.45 84.7725 90)
      (effects (font (size 1.27 1.27)) (justify right))
    )
    (property "Value" "LED" (at 171.45 87.3125 90)
      (effects (font (size 1.27 1.27)) (justify right))
    )
    (property "Footprint" "LED_SMD:LED_0805_2012Metric_Pad1.15x1.40mm_HandSolder" (at 167.64 83.82 0)
      (effects (font (size 1.27 1.27)) hide)
    )
    (property "Datasheet" "~" (at 167.64 83.82 0)
      (effects (font (size 1.27 1.27)) hide)
    )
    (pin "1" (uuid 259c04af-8e99-4d4d-bd3a-0d43174e289d))
    (pin "2" (uuid 9a13b37e-5b1a-4d8a-bb61-bdb414964348))
    (instances
      (project "EEE88"
        (path "/4c4b5429-b7a2-420c-b88b-ebe885317a81/93f6054d-c5d2-4e5b-9608-b51adef457dd/8fd898c2-cbc8-492a-8a1a-2a57edcdc78b"
          (reference "D10") (unit 1)
        )
      )
      (project "Sensor (1)"
        (path "/ef2f9421-0c9c-454c-9295-d30afe1ad00b"
          (reference "D3") (unit 1)
        )
      )
    )
  )

  (symbol (lib_id "Device:R") (at 177.8 91.44 0) (unit 1)
    (in_bom yes) (on_board yes) (dnp no) (fields_autoplaced)
    (uuid 4d779677-8a2c-4f2a-8bb4-3104adcfc962)
    (property "Reference" "R13" (at 179.705 90.805 0)
      (effects (font (size 1.27 1.27)) (justify left))
    )
    (property "Value" "470" (at 179.705 93.345 0)
      (effects (font (size 1.27 1.27)) (justify left))
    )
    (property "Footprint" "Resistor_THT:R_Axial_DIN0204_L3.6mm_D1.6mm_P7.62mm_Horizontal" (at 176.022 91.44 90)
      (effects (font (size 1.27 1.27)) hide)
    )
    (property "Datasheet" "~" (at 177.8 91.44 0)
      (effects (font (size 1.27 1.27)) hide)
    )
    (pin "1" (uuid 8c3f0a0f-6156-455f-8c22-a05c62c4d453))
    (pin "2" (uuid d571297e-3960-4f75-9bd9-466b3eb9777b))
    (instances
      (project "EEE88"
        (path "/4c4b5429-b7a2-420c-b88b-ebe885317a81/93f6054d-c5d2-4e5b-9608-b51adef457dd/8fd898c2-cbc8-492a-8a1a-2a57edcdc78b"
          (reference "R13") (unit 1)
        )
      )
      (project "Sensor (1)"
        (path "/ef2f9421-0c9c-454c-9295-d30afe1ad00b"
          (reference "R1") (unit 1)
        )
      )
    )
  )

  (symbol (lib_id "Device:LED") (at 177.8 83.82 90) (unit 1)
    (in_bom yes) (on_board yes) (dnp no) (fields_autoplaced)
    (uuid 7678cac6-bf2a-49ad-a105-39361b60264a)
    (property "Reference" "D11" (at 180.975 84.7725 90)
      (effects (font (size 1.27 1.27)) (justify right))
    )
    (property "Value" "LED" (at 180.975 87.3125 90)
      (effects (font (size 1.27 1.27)) (justify right))
    )
    (property "Footprint" "LED_SMD:LED_0805_2012Metric_Pad1.15x1.40mm_HandSolder" (at 177.8 83.82 0)
      (effects (font (size 1.27 1.27)) hide)
    )
    (property "Datasheet" "~" (at 177.8 83.82 0)
      (effects (font (size 1.27 1.27)) hide)
    )
    (pin "1" (uuid 36fd8325-d7a7-4b7e-8f74-82d1a1c0ae04))
    (pin "2" (uuid f045bd60-45ff-4f0f-8504-5d3a19e7089e))
    (instances
      (project "EEE88"
        (path "/4c4b5429-b7a2-420c-b88b-ebe885317a81/93f6054d-c5d2-4e5b-9608-b51adef457dd/8fd898c2-cbc8-492a-8a1a-2a57edcdc78b"
          (reference "D11") (unit 1)
        )
      )
      (project "Sensor (1)"
        (path "/ef2f9421-0c9c-454c-9295-d30afe1ad00b"
          (reference "D2") (unit 1)
        )
      )
    )
  )

  (symbol (lib_id "power:GND") (at 167.64 107.95 0) (unit 1)
    (in_bom yes) (on_board yes) (dnp no) (fields_autoplaced)
    (uuid 772f7de5-9f34-4848-8e20-9d93d1c33741)
    (property "Reference" "#PWR0123" (at 167.64 114.3 0)
      (effects (font (size 1.27 1.27)) hide)
    )
    (property "Value" "GND" (at 167.64 111.76 0)
      (effects (font (size 1.27 1.27)))
    )
    (property "Footprint" "" (at 167.64 107.95 0)
      (effects (font (size 1.27 1.27)) hide)
    )
    (property "Datasheet" "" (at 167.64 107.95 0)
      (effects (font (size 1.27 1.27)) hide)
    )
    (pin "1" (uuid 10e674bc-23d6-4ffd-8304-a27d803af033))
    (instances
      (project "EEE88"
        (path "/4c4b5429-b7a2-420c-b88b-ebe885317a81/93f6054d-c5d2-4e5b-9608-b51adef457dd/8fd898c2-cbc8-492a-8a1a-2a57edcdc78b"
          (reference "#PWR0123") (unit 1)
        )
      )
      (project "Sensor (1)"
        (path "/ef2f9421-0c9c-454c-9295-d30afe1ad00b"
          (reference "#PWR03") (unit 1)
        )
      )
    )
  )

  (symbol (lib_id "power:GND") (at 114.3 130.81 0) (unit 1)
    (in_bom yes) (on_board yes) (dnp no) (fields_autoplaced)
    (uuid a4092ba6-79b7-41a2-ad72-92e62a62e182)
    (property "Reference" "#PWR0124" (at 114.3 137.16 0)
      (effects (font (size 1.27 1.27)) hide)
    )
    (property "Value" "GND" (at 114.3 134.62 0)
      (effects (font (size 1.27 1.27)))
    )
    (property "Footprint" "" (at 114.3 130.81 0)
      (effects (font (size 1.27 1.27)) hide)
    )
    (property "Datasheet" "" (at 114.3 130.81 0)
      (effects (font (size 1.27 1.27)) hide)
    )
    (pin "1" (uuid acda4262-f682-4202-a146-0cf3136b829b))
    (instances
      (project "EEE88"
        (path "/4c4b5429-b7a2-420c-b88b-ebe885317a81/93f6054d-c5d2-4e5b-9608-b51adef457dd/8fd898c2-cbc8-492a-8a1a-2a57edcdc78b"
          (reference "#PWR0124") (unit 1)
        )
      )
      (project "Sensor (1)"
        (path "/ef2f9421-0c9c-454c-9295-d30afe1ad00b"
          (reference "#PWR02") (unit 1)
        )
      )
    )
  )

  (symbol (lib_id "power:PWR_FLAG") (at 76.2 40.64 0) (unit 1)
    (in_bom yes) (on_board yes) (dnp no) (fields_autoplaced)
    (uuid aebfc3f5-a860-4f85-be83-18f1e717d63b)
    (property "Reference" "#FLG0103" (at 76.2 38.735 0)
      (effects (font (size 1.27 1.27)) hide)
    )
    (property "Value" "PWR_FLAG" (at 76.2 36.83 0)
      (effects (font (size 1.27 1.27)))
    )
    (property "Footprint" "" (at 76.2 40.64 0)
      (effects (font (size 1.27 1.27)) hide)
    )
    (property "Datasheet" "~" (at 76.2 40.64 0)
      (effects (font (size 1.27 1.27)) hide)
    )
    (pin "1" (uuid 8cb2420c-27e2-434f-8047-c8e6c907062c))
    (instances
      (project "EEE88"
        (path "/4c4b5429-b7a2-420c-b88b-ebe885317a81/93f6054d-c5d2-4e5b-9608-b51adef457dd/8fd898c2-cbc8-492a-8a1a-2a57edcdc78b"
          (reference "#FLG0103") (unit 1)
        )
      )
      (project "sensing"
        (path "/ae78189d-79c7-41a0-b77c-3bb766898352/06d15bb2-99a3-48b6-a3af-0a13286b464c"
          (reference "#FLG04") (unit 1)
        )
      )
    )
  )

  (symbol (lib_id "Device:R") (at 167.64 92.71 0) (unit 1)
    (in_bom yes) (on_board yes) (dnp no) (fields_autoplaced)
    (uuid c8b471be-3842-4a62-8f10-3bf0e3fb217a)
    (property "Reference" "R12" (at 169.545 92.075 0)
      (effects (font (size 1.27 1.27)) (justify left))
    )
    (property "Value" "1K" (at 169.545 94.615 0)
      (effects (font (size 1.27 1.27)) (justify left))
    )
    (property "Footprint" "Resistor_THT:R_Axial_DIN0204_L3.6mm_D1.6mm_P7.62mm_Horizontal" (at 165.862 92.71 90)
      (effects (font (size 1.27 1.27)) hide)
    )
    (property "Datasheet" "~" (at 167.64 92.71 0)
      (effects (font (size 1.27 1.27)) hide)
    )
    (pin "1" (uuid 2cecb0ad-dcdb-4373-b6d1-39a0d214e042))
    (pin "2" (uuid d145e8d6-ddbe-416b-a710-245cadb2d4b3))
    (instances
      (project "EEE88"
        (path "/4c4b5429-b7a2-420c-b88b-ebe885317a81/93f6054d-c5d2-4e5b-9608-b51adef457dd/8fd898c2-cbc8-492a-8a1a-2a57edcdc78b"
          (reference "R12") (unit 1)
        )
      )
      (project "Sensor (1)"
        (path "/ef2f9421-0c9c-454c-9295-d30afe1ad00b"
          (reference "R2") (unit 1)
        )
      )
    )
  )

  (symbol (lib_id "Device:R") (at 130.81 123.19 0) (unit 1)
    (in_bom yes) (on_board yes) (dnp no) (fields_autoplaced)
    (uuid e1251ee6-d860-4a48-87a8-535dcf658020)
    (property "Reference" "R10" (at 132.715 122.555 0)
      (effects (font (size 1.27 1.27)) (justify left))
    )
    (property "Value" "1k" (at 132.715 125.095 0)
      (effects (font (size 1.27 1.27)) (justify left))
    )
    (property "Footprint" "Resistor_THT:R_Axial_DIN0204_L3.6mm_D1.6mm_P7.62mm_Horizontal" (at 129.032 123.19 90)
      (effects (font (size 1.27 1.27)) hide)
    )
    (property "Datasheet" "~" (at 130.81 123.19 0)
      (effects (font (size 1.27 1.27)) hide)
    )
    (pin "1" (uuid 7ed1e9d8-f877-431d-ada7-2ee307b6b5f4))
    (pin "2" (uuid adc46c3c-2e35-434e-8f25-d0a15b66ba68))
    (instances
      (project "EEE88"
        (path "/4c4b5429-b7a2-420c-b88b-ebe885317a81/93f6054d-c5d2-4e5b-9608-b51adef457dd/8fd898c2-cbc8-492a-8a1a-2a57edcdc78b"
          (reference "R10") (unit 1)
        )
      )
      (project "Sensor (1)"
        (path "/ef2f9421-0c9c-454c-9295-d30afe1ad00b"
          (reference "R5") (unit 1)
        )
      )
    )
  )

  (symbol (lib_id "Device:LED") (at 114.3 124.46 90) (unit 1)
    (in_bom yes) (on_board yes) (dnp no) (fields_autoplaced)
    (uuid e3a407c8-b24f-4f0b-92ae-a1109ce756ab)
    (property "Reference" "D8" (at 118.11 125.4125 90)
      (effects (font (size 1.27 1.27)) (justify right))
    )
    (property "Value" "LED" (at 118.11 127.9525 90)
      (effects (font (size 1.27 1.27)) (justify right))
    )
    (property "Footprint" "LED_SMD:LED_0805_2012Metric_Pad1.15x1.40mm_HandSolder" (at 114.3 124.46 0)
      (effects (font (size 1.27 1.27)) hide)
    )
    (property "Datasheet" "~" (at 114.3 124.46 0)
      (effects (font (size 1.27 1.27)) hide)
    )
    (pin "1" (uuid 08646d02-f150-4123-8940-7e255f56712f))
    (pin "2" (uuid dcb8fbfd-f96b-402e-b2ab-cc8f0c363c46))
    (instances
      (project "EEE88"
        (path "/4c4b5429-b7a2-420c-b88b-ebe885317a81/93f6054d-c5d2-4e5b-9608-b51adef457dd/8fd898c2-cbc8-492a-8a1a-2a57edcdc78b"
          (reference "D8") (unit 1)
        )
      )
      (project "Sensor (1)"
        (path "/ef2f9421-0c9c-454c-9295-d30afe1ad00b"
          (reference "D1") (unit 1)
        )
      )
    )
  )

  (symbol (lib_id "power:GND") (at 152.4 96.52 180) (unit 1)
    (in_bom yes) (on_board yes) (dnp no)
    (uuid ee7df5ad-9eff-4777-9c17-40083c815c86)
    (property "Reference" "#PWR04" (at 152.4 90.17 0)
      (effects (font (size 1.27 1.27)) hide)
    )
    (property "Value" "GND" (at 151.13 101.6 0)
      (effects (font (size 1.27 1.27)))
    )
    (property "Footprint" "" (at 152.4 96.52 0)
      (effects (font (size 1.27 1.27)) hide)
    )
    (property "Datasheet" "" (at 152.4 96.52 0)
      (effects (font (size 1.27 1.27)) hide)
    )
    (pin "1" (uuid 4403624f-ed05-4e6c-bce7-9e42a92caa18))
    (instances
      (project "EEE88"
        (path "/4c4b5429-b7a2-420c-b88b-ebe885317a81/93f6054d-c5d2-4e5b-9608-b51adef457dd/8fd898c2-cbc8-492a-8a1a-2a57edcdc78b"
          (reference "#PWR04") (unit 1)
        )
      )
      (project "Sensor (1)"
        (path "/ef2f9421-0c9c-454c-9295-d30afe1ad00b"
          (reference "#PWR01") (unit 1)
        )
      )
    )
  )

  (symbol (lib_id "Device:C") (at 167.64 102.87 0) (unit 1)
    (in_bom yes) (on_board yes) (dnp no) (fields_autoplaced)
    (uuid f785f0d8-40db-4734-b9b6-89c2818f9964)
    (property "Reference" "C8" (at 170.815 102.235 0)
      (effects (font (size 1.27 1.27)) (justify left) hide)
    )
    (property "Value" "100nF" (at 170.815 104.775 0)
      (effects (font (size 1.27 1.27)) (justify left) hide)
    )
    (property "Footprint" "Capacitor_THT:CP_Radial_D10.0mm_P5.00mm" (at 168.6052 106.68 0)
      (effects (font (size 1.27 1.27)) hide)
    )
    (property "Datasheet" "~" (at 167.64 102.87 0)
      (effects (font (size 1.27 1.27)) hide)
    )
    (pin "1" (uuid 5ebe98c2-7c7b-458c-89e0-ade17c8990f2))
    (pin "2" (uuid 2a109b60-42f6-4609-8a01-4a2e9d0055f0))
    (instances
      (project "EEE88"
        (path "/4c4b5429-b7a2-420c-b88b-ebe885317a81/93f6054d-c5d2-4e5b-9608-b51adef457dd/8fd898c2-cbc8-492a-8a1a-2a57edcdc78b"
          (reference "C8") (unit 1)
        )
      )
      (project "Sensor (1)"
        (path "/ef2f9421-0c9c-454c-9295-d30afe1ad00b"
          (reference "C1") (unit 1)
        )
      )
    )
  )

  (symbol (lib_id "Device:R") (at 139.7 132.08 0) (unit 1)
    (in_bom yes) (on_board yes) (dnp no) (fields_autoplaced)
    (uuid fac92ef1-ef3a-4ad8-aa4a-ffde26141b27)
    (property "Reference" "R11" (at 142.24 131.445 0)
      (effects (font (size 1.27 1.27)) (justify left))
    )
    (property "Value" "440" (at 142.24 133.985 0)
      (effects (font (size 1.27 1.27)) (justify left))
    )
    (property "Footprint" "Resistor_THT:R_Axial_DIN0204_L3.6mm_D1.6mm_P7.62mm_Horizontal" (at 137.922 132.08 90)
      (effects (font (size 1.27 1.27)) hide)
    )
    (property "Datasheet" "~" (at 139.7 132.08 0)
      (effects (font (size 1.27 1.27)) hide)
    )
    (pin "1" (uuid b933dbb3-358f-4d84-a120-7a4d52b4c30f))
    (pin "2" (uuid 78cbabaf-cc67-4d4f-b0cc-ed48c7bfc009))
    (instances
      (project "EEE88"
        (path "/4c4b5429-b7a2-420c-b88b-ebe885317a81/93f6054d-c5d2-4e5b-9608-b51adef457dd/8fd898c2-cbc8-492a-8a1a-2a57edcdc78b"
          (reference "R11") (unit 1)
        )
      )
      (project "Sensor (1)"
        (path "/ef2f9421-0c9c-454c-9295-d30afe1ad00b"
          (reference "R6") (unit 1)
        )
      )
    )
  )

  (symbol (lib_id "BH1750FVI-TR:BH1750FVI-TR") (at 134.62 88.9 0) (unit 1)
    (in_bom yes) (on_board yes) (dnp no) (fields_autoplaced)
    (uuid fcb113f2-5f4c-41ba-aafc-98ac109a7ae1)
    (property "Reference" "U2" (at 134.62 72.39 0)
      (effects (font (size 1.27 1.27)))
    )
    (property "Value" "BH1750FVI-TR" (at 134.62 74.93 0)
      (effects (font (size 1.27 1.27)))
    )
    (property "Footprint" "BH1750FVI-TR:XDCR_BH1750FVI-TR" (at 134.62 88.9 0)
      (effects (font (size 1.27 1.27)) (justify bottom) hide)
    )
    (property "Datasheet" "" (at 134.62 88.9 0)
      (effects (font (size 1.27 1.27)) hide)
    )
    (property "MANUFACTURER" "Rohm" (at 134.62 88.9 0)
      (effects (font (size 1.27 1.27)) (justify bottom) hide)
    )
    (property "PARTREV" "D" (at 134.62 88.9 0)
      (effects (font (size 1.27 1.27)) (justify bottom) hide)
    )
    (property "STANDARD" "Manufacturer recommendations" (at 134.62 88.9 0)
      (effects (font (size 1.27 1.27)) (justify bottom) hide)
    )
    (property "MAXIMUM_PACKAGE_HEIGHT" "0.75mm" (at 134.62 88.9 0)
      (effects (font (size 1.27 1.27)) (justify bottom) hide)
    )
    (pin "1" (uuid de5037d7-4dbe-456c-8b5d-0e6729357932))
    (pin "2" (uuid 060f64ad-959a-4fbd-9db1-cb9282359f73))
    (pin "3" (uuid de85c6e4-06e2-4015-a396-1d236b272139))
    (pin "4" (uuid 3e1d9b1e-9936-4dff-b18e-4f641c71a241))
    (pin "5" (uuid fd2ee3ed-406c-4d99-a2b4-d8bbfe6d9c69))
    (pin "6" (uuid 08c45b95-6f7c-4b4a-8686-3ccc570ec192))
    (instances
      (project "EEE88"
        (path "/4c4b5429-b7a2-420c-b88b-ebe885317a81/93f6054d-c5d2-4e5b-9608-b51adef457dd/8fd898c2-cbc8-492a-8a1a-2a57edcdc78b"
          (reference "U2") (unit 1)
        )
      )
    )
  )
)
