(kicad_sch (version 20230121) (generator eeschema)

  (uuid 5b87d508-679a-48f1-9edd-6fd69e38ced8)

  (paper "A4")

  (title_block
    (title "Power subsystem")
    (date "2023-03-21")
    (company "university of cape town")
    (comment 1 "Author: Morris Nkomo")
  )

  (lib_symbols
    (symbol "Jumper:SolderJumper_2_Bridged" (pin_names (offset 0) hide) (in_bom yes) (on_board yes)
      (property "Reference" "JP" (at 0 2.032 0)
        (effects (font (size 1.27 1.27)))
      )
      (property "Value" "SolderJumper_2_Bridged" (at 0 -2.54 0)
        (effects (font (size 1.27 1.27)))
      )
      (property "Footprint" "" (at 0 0 0)
        (effects (font (size 1.27 1.27)) hide)
      )
      (property "Datasheet" "~" (at 0 0 0)
        (effects (font (size 1.27 1.27)) hide)
      )
      (property "ki_keywords" "solder jumper SPST" (at 0 0 0)
        (effects (font (size 1.27 1.27)) hide)
      )
      (property "ki_description" "Solder Jumper, 2-pole, closed/bridged" (at 0 0 0)
        (effects (font (size 1.27 1.27)) hide)
      )
      (property "ki_fp_filters" "SolderJumper*Bridged*" (at 0 0 0)
        (effects (font (size 1.27 1.27)) hide)
      )
      (symbol "SolderJumper_2_Bridged_0_1"
        (rectangle (start -0.508 0.508) (end 0.508 -0.508)
          (stroke (width 0) (type default))
          (fill (type outline))
        )
        (arc (start -0.254 1.016) (mid -1.2656 0) (end -0.254 -1.016)
          (stroke (width 0) (type default))
          (fill (type none))
        )
        (arc (start -0.254 1.016) (mid -1.2656 0) (end -0.254 -1.016)
          (stroke (width 0) (type default))
          (fill (type outline))
        )
        (polyline
          (pts
            (xy -0.254 1.016)
            (xy -0.254 -1.016)
          )
          (stroke (width 0) (type default))
          (fill (type none))
        )
        (polyline
          (pts
            (xy 0.254 1.016)
            (xy 0.254 -1.016)
          )
          (stroke (width 0) (type default))
          (fill (type none))
        )
        (arc (start 0.254 -1.016) (mid 1.2656 0) (end 0.254 1.016)
          (stroke (width 0) (type default))
          (fill (type none))
        )
        (arc (start 0.254 -1.016) (mid 1.2656 0) (end 0.254 1.016)
          (stroke (width 0) (type default))
          (fill (type outline))
        )
      )
      (symbol "SolderJumper_2_Bridged_1_1"
        (pin passive line (at -3.81 0 0) (length 2.54)
          (name "A" (effects (font (size 1.27 1.27))))
          (number "1" (effects (font (size 1.27 1.27))))
        )
        (pin passive line (at 3.81 0 180) (length 2.54)
          (name "B" (effects (font (size 1.27 1.27))))
          (number "2" (effects (font (size 1.27 1.27))))
        )
      )
    )
  )

  (junction (at 125.73 63.5) (diameter 0) (color 0 0 0 0)
    (uuid ef824d0b-7563-42f2-8e34-660526974416)
  )

  (wire (pts (xy 69.85 35.56) (xy 125.73 35.56))
    (stroke (width 0) (type default))
    (uuid 0647e956-e73b-4252-8024-8fa1c9009c69)
  )
  (wire (pts (xy 153.67 58.42) (xy 167.64 58.42))
    (stroke (width 0) (type default))
    (uuid 0782010c-f844-4f0f-b882-a78ba3cfaf8b)
  )
  (wire (pts (xy 125.73 63.5) (xy 133.35 63.5))
    (stroke (width 0) (type default))
    (uuid 1641b64f-3549-477e-9628-f20e2d8983ce)
  )
  (wire (pts (xy 236.22 111.76) (xy 248.92 111.76))
    (stroke (width 0) (type default))
    (uuid 19efa459-fe65-4ac0-b1c9-e69ff260e6d6)
  )
  (wire (pts (xy 234.95 69.85) (xy 250.19 69.85))
    (stroke (width 0) (type default))
    (uuid 36f02bff-fc83-4b33-99c7-9b3da427cb55)
  )
  (wire (pts (xy 140.97 63.5) (xy 167.64 63.5))
    (stroke (width 0) (type default))
    (uuid 4c0499d0-ed27-4965-b415-d80d9f84f20a)
  )
  (wire (pts (xy 153.67 71.12) (xy 167.64 71.12))
    (stroke (width 0) (type default))
    (uuid 6a12baa4-2647-4ba8-9ef1-14f89de797c6)
  )
  (wire (pts (xy 125.73 63.5) (xy 125.73 119.38))
    (stroke (width 0) (type default))
    (uuid 82690445-e0c8-41ab-923a-3a5b27058859)
  )
  (wire (pts (xy 234.95 63.5) (xy 250.19 63.5))
    (stroke (width 0) (type default))
    (uuid 99de5d4f-8e91-4658-9530-aee2882e2e49)
  )
  (wire (pts (xy 125.73 119.38) (xy 168.91 119.38))
    (stroke (width 0) (type default))
    (uuid 9b2fc150-7d1f-4e15-95d7-2ad2c6603e66)
  )
  (wire (pts (xy 152.4 111.76) (xy 168.91 111.76))
    (stroke (width 0) (type default))
    (uuid a372fa2d-2467-4ac7-af16-fe25ba7c6a38)
  )
  (wire (pts (xy 125.73 35.56) (xy 125.73 63.5))
    (stroke (width 0) (type default))
    (uuid d91410dd-d728-4126-bde9-745de9c2bc54)
  )

  (hierarchical_label "CLK" (shape input) (at 153.67 71.12 180) (fields_autoplaced)
    (effects (font (size 1.27 1.27)) (justify right))
    (uuid 05b9e8d5-7fc1-41ae-a722-1f17d03b87a7)
  )
  (hierarchical_label "Int" (shape output) (at 250.19 69.85 0) (fields_autoplaced)
    (effects (font (size 1.27 1.27)) (justify left))
    (uuid 26110e84-c490-4584-99f5-c1a74951978c)
  )
  (hierarchical_label "Data" (shape output) (at 250.19 63.5 0) (fields_autoplaced)
    (effects (font (size 1.27 1.27)) (justify left))
    (uuid 26184b68-6349-4414-9c69-f3de648e286e)
  )
  (hierarchical_label "Intensity Data" (shape input) (at 248.92 111.76 0) (fields_autoplaced)
    (effects (font (size 1.27 1.27)) (justify left))
    (uuid 2dfff1bf-d555-43a0-a2c6-f336a9653b58)
  )
  (hierarchical_label "Intensity_Active" (shape input) (at 152.4 111.76 180) (fields_autoplaced)
    (effects (font (size 1.27 1.27)) (justify right))
    (uuid 7a6f6511-a7ae-4fe0-ac6b-c1c0f268e510)
  )
  (hierarchical_label "DVI" (shape input) (at 153.67 58.42 180) (fields_autoplaced)
    (effects (font (size 1.27 1.27)) (justify right))
    (uuid bd3ed2fc-8052-42d0-ba27-ceecdfbfd8a7)
  )
  (hierarchical_label "3.3V" (shape input) (at 69.85 35.56 180) (fields_autoplaced)
    (effects (font (size 1.27 1.27)) (justify right))
    (uuid c8fc6f85-c716-4f31-a09a-c17942115c0d)
  )

  (symbol (lib_id "Jumper:SolderJumper_2_Bridged") (at 137.16 63.5 0) (unit 1)
    (in_bom yes) (on_board yes) (dnp no) (fields_autoplaced)
    (uuid 0d2f5c86-49c4-40c7-a650-8e1fa4bd099a)
    (property "Reference" "JP4" (at 137.16 57.15 0)
      (effects (font (size 1.27 1.27)))
    )
    (property "Value" "SolderJumper_2_Bridged" (at 137.16 59.69 0)
      (effects (font (size 1.27 1.27)))
    )
    (property "Footprint" "Jumper:SolderJumper-2_P1.3mm_Bridged_RoundedPad1.0x1.5mm" (at 137.16 63.5 0)
      (effects (font (size 1.27 1.27)) hide)
    )
    (property "Datasheet" "~" (at 137.16 63.5 0)
      (effects (font (size 1.27 1.27)) hide)
    )
    (pin "1" (uuid 154ca726-a6b6-47f1-b9dc-035bc1c09054))
    (pin "2" (uuid 1393209b-8543-4cf8-bc8d-50363adce3b5))
    (instances
      (project "EEE88"
        (path "/4c4b5429-b7a2-420c-b88b-ebe885317a81/93f6054d-c5d2-4e5b-9608-b51adef457dd"
          (reference "JP4") (unit 1)
        )
      )
      (project "sensing"
        (path "/ae78189d-79c7-41a0-b77c-3bb766898352"
          (reference "JP5") (unit 1)
        )
      )
    )
  )

  (sheet (at 168.91 99.06) (size 67.31 26.67) (fields_autoplaced)
    (stroke (width 0.1524) (type solid))
    (fill (color 0 0 0 0.0000))
    (uuid 00b82790-ab8e-4553-9fe0-ee4a22459e7c)
    (property "Sheetname" "Analogue" (at 168.91 98.3484 0)
      (effects (font (size 1.27 1.27)) (justify left bottom))
    )
    (property "Sheetfile" "Analogue.kicad_sch" (at 168.91 126.3146 0)
      (effects (font (size 1.27 1.27)) (justify left top))
    )
    (pin "Output" output (at 236.22 111.76 0)
      (effects (font (size 1.27 1.27)) (justify right))
      (uuid 77cd89ad-fe06-4a1e-8410-dfc01af2a59b)
    )
    (pin "Active" input (at 168.91 111.76 180)
      (effects (font (size 1.27 1.27)) (justify left))
      (uuid d533dc6c-311c-4cab-9aa6-99442b657602)
    )
    (pin "+3.3V" input (at 168.91 119.38 180)
      (effects (font (size 1.27 1.27)) (justify left))
      (uuid 6403015a-7f78-4814-b071-c2d0f74b5146)
    )
    (instances
      (project "EEE88"
        (path "/4c4b5429-b7a2-420c-b88b-ebe885317a81/93f6054d-c5d2-4e5b-9608-b51adef457dd" (page "6"))
      )
    )
  )

  (sheet (at 167.64 49.53) (size 67.31 26.67) (fields_autoplaced)
    (stroke (width 0.1524) (type solid))
    (fill (color 0 0 0 0.0000))
    (uuid 8fd898c2-cbc8-492a-8a1a-2a57edcdc78b)
    (property "Sheetname" "Digital" (at 167.64 48.8184 0)
      (effects (font (size 1.27 1.27)) (justify left bottom))
    )
    (property "Sheetfile" "Digital.kicad_sch" (at 167.64 76.7846 0)
      (effects (font (size 1.27 1.27)) (justify left top))
    )
    (pin "+3.3V" input (at 167.64 63.5 180)
      (effects (font (size 1.27 1.27)) (justify left))
      (uuid 712a78a0-4d60-45b0-90fd-c05f9e7cf263)
    )
    (pin "DVI" input (at 167.64 58.42 180)
      (effects (font (size 1.27 1.27)) (justify left))
      (uuid 70f1ae7a-6562-4542-b60b-f7e82601a837)
    )
    (pin "I2C Clock" input (at 167.64 71.12 180)
      (effects (font (size 1.27 1.27)) (justify left))
      (uuid 4978fed7-ce12-4778-9eb2-5c44d3381598)
    )
    (pin "I2C Data" output (at 234.95 63.5 0)
      (effects (font (size 1.27 1.27)) (justify right))
      (uuid 77a7e1c1-67da-4ec7-a483-0a1cee85897d)
    )
    (pin "Interrupt" output (at 234.95 69.85 0)
      (effects (font (size 1.27 1.27)) (justify right))
      (uuid 6490864c-72ab-488f-981e-714d958109d7)
    )
    (instances
      (project "EEE88"
        (path "/4c4b5429-b7a2-420c-b88b-ebe885317a81/93f6054d-c5d2-4e5b-9608-b51adef457dd" (page "5"))
      )
    )
  )
)
